Ape1
0
2
2
1
12
0
FirstApe
Tutorial
0
1
1
1
0
-1
Tutorial
Merchant
0
1
1
2
1
-1
merchant
Jerald
0
1
1
1
12
0
bandit
Left-Door
0
1
1
0
11
1
Leftdoor
Right-Door
0
1
1
0
3
1
Rightdoor
Left-Door
0
1
1
1
0
1
FirstDoor
Mayor
1
1
1
2
0
-1
Mayor
Innkeeper
1
1
1
2
0
-1
Innkeeper
Genericmale
0
1
1
2
0
-1
NPC1
Genericmale
0
1
1
2
0
-1
NPC2
Beggar
0
1
1
2
0
-1
NPC3
Genericfemale
0
1
1
2
0
-1
NPC4
Genericmale
0
1
1
2
0
-1
NPC5
Banditactor
0
1
1
2
23
0
Warehousekeeper
Banditactor
0
1
1
2
23
0
Warehousegrunt
Double-Door-Closed-Right
0
2
1
2
-1
-1
ToBarrens2
Double-Door-Closed-Right
0
2
1
2
-1
-1
ToBarrens1
Double-Door-Closed
0
1
2
2
16
1
Entrance
Stairs-Down
0
1
1
2
0
-1
ToWarehouse2
Stairs-Up
0
1
1
2
0
-1
ToWarehouse
Double-Door-Closed
0
1
2
2
0
-1
ExitBarrens
Broken PipeWater
0
1
1
2
0
-1
Water
Right-Door
0
1
1
2
3
1
DoorKeeperDoor
Double-Door-Closed-Right
0
2
1
2
0
-1
ExitWarehouse
Banditactor
0
1
1
3
-1
-1
Alan
Genericmale
0
1
1
4
-1
-1
Kevin
Dog
0
1
1
4
-1
-1
Dog
Genericmale
0
1
1
5
-1
-1
Matt
Genericfemale
0
1
1
5
-1
-1
Noel
Double-Door-Closed
0
1
2
-1
0
-1
ToBarrens3
end
