Wall
0
1
1
Pillar
0
1
1
TrashCan
1
1
1
PhoneBox
0
1
1
RunDownConcrete-Wall
0
1
1
Mall-Wall
0
1
1
White-Concrete-Wall
0
1
1
Metal-Varehouse-Bar-Vall
0
1
1
DarkGreenPillar
0
1
1
BarStool
1
1
1
DarkGreenPillar
0
1
1
Metal-Varehouse-Vall
0
1
1
Metal-Varehouse-Bar-Vall
0
1
1
ShortPillar
0
1
1
WoodenBarWall
0
1
1
WarehouseFrame
0
1
1
Bench
1
1
2
Cabinet
0
1
2
lockers2x1
0
1
3
Bench
0
2
1
Pillar
0
1
1
WoodenBarWall
0
1
1
Desk
0
1
2
WoodenTable
0
1
1
Jukebox
0
1
1
Bed
0
2
2
Anvil
0
1
1
SideTable
0
1
1
CardboardBox
0
1
1
Metal-Varehouse-Vall
0
1
1
Metal-Varehouse-Bar-Vall
0
1
1
WarehouseFrame-Top
0
1
1
WarehouseFrame-Struts
0
1
1
WarehouseFrame-BottomStrut
0
1
1
WarehouseFrame-Bottom
0
1
1
Bones
0
1
1
Lockers2x1
0
2
1
Warehouse2Wall
0
1
1
end
