80
34
0
38
64
29
2
58
17
29
2
58
18
29
2
57
17
29
2
56
17
29
2
58
19
29
2
58
20
29
2
55
17
29
2
58
21
29
2
54
17
29
2
53
17
29
2
58
22
29
2
52
17
29
2
58
23
29
2
58
24
73
2
52
18
29
2
51
17
29
2
58
25
29
2
50
17
29
2
49
17
29
2
58
26
29
2
58
27
29
2
48
17
29
2
47
17
29
2
58
28
29
2
57
27
29
2
48
18
29
2
56
27
29
2
48
19
29
2
58
29
29
2
46
17
29
2
48
20
29
2
45
17
29
2
58
30
29
2
48
21
29
2
44
17
29
2
58
31
29
2
43
17
29
2
48
22
29
2
58
32
29
2
53
27
29
2
58
33
29
2
42
17
29
2
52
27
73
2
42
18
29
2
51
27
29
2
41
17
29
2
58
34
29
2
48
25
29
2
58
35
29
2
32
9
29
2
40
17
29
2
50
27
29
2
48
26
29
2
58
36
29
2
39
17
29
2
31
9
29
2
49
27
33
2
32
10
29
2
48
27
29
2
57
36
29
2
30
9
29
2
32
11
29
2
38
17
29
2
58
37
65
2
43
22
29
2
58
38
29
2
29
9
29
2
56
36
29
2
32
12
29
2
37
17
29
2
32
13
29
2
58
39
29
2
55
36
29
2
28
9
29
2
36
17
29
2
27
9
29
2
58
40
29
2
35
17
29
2
32
14
73
2
36
18
29
2
53
36
65
2
39
22
29
2
58
41
29
2
26
9
29
2
34
17
29
2
32
15
29
2
25
9
29
2
32
16
29
2
52
36
29
2
33
17
29
2
58
42
29
2
24
9
29
2
32
17
29
2
58
43
29
2
32
17
29
2
51
36
29
2
23
9
29
2
50
36
29
2
58
44
29
2
32
18
29
2
49
36
65
2
35
22
29
2
58
45
29
2
32
19
29
2
22
9
29
2
58
46
29
2
48
36
29
2
32
20
29
2
47
36
29
2
58
47
29
2
32
21
29
2
46
36
29
2
32
22
29
2
58
48
29
2
19
9
29
2
46
37
29
2
58
49
29
2
18
9
29
2
58
50
29
2
46
38
29
2
17
9
29
2
16
9
29
2
32
25
29
2
46
39
29
2
58
51
29
2
15
9
29
2
32
26
29
2
58
52
29
2
46
40
29
2
14
9
29
2
32
27
29
2
58
53
29
2
46
41
29
2
46
42
29
2
32
28
29
2
13
9
29
2
58
54
29
2
45
42
29
2
46
43
29
2
32
29
29
2
58
55
29
2
12
9
29
2
44
42
29
2
46
44
29
2
32
30
29
2
58
56
29
2
11
9
29
2
11
10
29
2
58
57
29
2
46
45
29
2
32
31
29
2
42
42
29
2
11
11
29
2
32
32
29
2
58
58
29
2
46
46
29
2
41
42
29
2
58
59
29
2
46
47
29
2
11
12
29
2
32
33
29
2
10
11
29
2
11
13
29
2
58
60
29
2
9
11
29
2
40
42
29
2
32
34
29
2
46
48
29
2
32
35
29
2
11
14
29
2
46
49
29
2
57
60
29
2
39
42
29
2
8
11
29
2
38
42
29
2
56
60
29
2
7
11
29
2
11
15
29
2
32
36
29
2
46
50
29
2
55
60
29
2
46
51
29
2
32
37
29
2
6
11
3
11
7
12
29
2
37
42
29
2
11
17
29
2
54
60
29
2
5
11
29
2
36
42
29
2
46
52
29
2
32
38
29
2
4
11
29
2
11
18
29
2
35
42
29
2
46
53
29
2
53
60
29
2
32
39
29
2
32
40
29
2
46
54
29
2
4
12
29
2
34
42
29
2
52
60
29
2
11
19
29
2
46
55
29
2
4
13
29
2
32
41
29
2
33
42
29
2
51
60
29
2
11
20
29
2
11
21
29
2
50
60
29
2
32
42
29
2
46
56
29
2
4
14
29
2
32
42
29
2
31
42
29
2
49
60
29
2
11
22
29
2
46
57
29
2
4
15
29
2
11
23
29
2
46
58
29
2
30
42
29
2
48
60
29
2
4
16
29
2
4
17
29
2
29
42
29
2
11
24
29
2
47
60
29
2
46
59
29
2
4
18
29
2
11
25
29
2
28
42
29
2
46
60
29
2
4
19
29
2
11
26
29
2
46
61
29
2
27
42
29
2
4
20
29
2
11
27
29
2
26
42
29
2
46
62
29
2
46
63
29
2
11
28
29
2
4
21
29
2
25
42
29
2
24
42
29
2
46
64
29
2
11
29
29
2
4
22
29
2
23
42
29
2
11
30
29
2
46
65
29
2
4
23
29
2
22
42
29
2
11
31
29
2
4
24
29
2
46
66
29
2
46
67
29
2
4
25
29
2
11
32
29
2
21
42
29
2
20
42
29
2
46
68
29
2
11
33
29
2
4
26
29
2
11
34
29
2
19
42
29
2
46
69
29
2
4
27
29
2
46
70
29
2
11
35
29
2
4
28
29
2
18
42
29
2
46
71
29
2
17
42
29
2
4
29
29
2
3
28
29
2
11
36
29
2
45
71
29
2
11
37
29
2
2
28
29
2
16
42
29
2
4
30
29
2
11
38
29
2
44
71
29
2
1
28
29
2
15
42
29
2
4
31
29
2
43
71
29
2
0
28
29
2
14
42
29
2
11
39
29
2
0
29
29
2
14
43
29
2
4
33
29
2
42
71
29
2
13
42
29
2
11
40
29
2
0
30
29
2
12
42
29
2
14
44
29
2
11
41
29
2
4
34
29
2
41
71
29
2
4
35
29
2
11
42
29
2
14
45
29
2
0
31
29
2
40
71
29
2
4
36
29
2
14
46
29
2
10
42
29
2
0
32
29
2
39
71
29
2
4
37
29
2
0
33
29
2
14
47
29
2
38
71
29
2
0
34
29
2
37
71
29
2
8
42
29
2
14
48
29
2
4
38
29
2
0
35
29
2
36
71
29
2
3
38
29
2
4
39
29
2
14
49
29
2
7
42
29
2
35
71
29
2
4
40
29
2
0
36
29
2
2
38
29
2
6
42
29
2
14
50
29
2
4
41
29
2
1
38
29
2
0
37
29
2
34
71
29
2
5
42
29
2
33
71
29
2
4
42
29
2
0
38
29
2
14
52
29
2
3
42
29
2
14
53
29
2
32
71
29
2
2
42
29
2
31
71
29
2
14
54
29
2
30
71
29
2
1
42
29
2
14
55
29
2
14
56
29
2
1
43
29
2
29
71
29
2
1
44
29
2
28
71
29
2
14
57
29
2
27
71
29
2
1
45
29
2
14
58
29
2
26
71
29
2
14
59
29
2
1
46
29
2
14
60
29
2
25
71
29
2
1
47
29
2
1
48
29
2
24
71
29
2
14
61
29
2
23
71
29
2
1
49
29
2
14
62
29
2
1
50
29
2
14
63
29
2
22
71
29
2
21
71
29
2
1
51
29
2
14
64
29
2
13
63
29
2
1
52
29
2
12
63
29
2
14
65
29
2
20
71
29
2
14
66
29
2
19
71
29
2
11
63
29
2
1
53
29
2
10
63
29
2
1
54
29
2
18
71
29
2
14
67
29
2
9
63
29
2
14
68
29
2
1
55
29
2
17
71
29
2
1
56
29
2
8
63
29
2
16
71
29
2
14
69
29
2
15
71
29
2
14
70
29
2
7
63
29
2
1
57
29
2
14
71
29
2
6
63
29
2
1
58
29
2
5
63
29
2
1
59
29
2
4
63
29
2
1
60
29
2
1
61
29
2
3
63
29
2
1
62
29
2
2
63
29
2
1
63
2
8
0
0
15
9
15
9
15
9
26
9
19
9
30
9
19
9
41
17
193
4
20
9
153
4
40
66
0
3
19
11
0
3
20
11
0
3
21
11
0
-1
30
58
0
-1
43
70
end
