CaveIn
Grafitti1
Grafitti2
Grafitti3
Grafitti4
EarthPoster
ExposedBrick
Exit
DangerSign(Door)
CircleLamp
Left-Door-Open
Right-Door-Open
Barshelf
Broken Pipe
BrokenWindow
Double-Door-Open
Pipe
Top-Cabinet
WarehouseFrame-Top
WarehouseFrame-Struts
end
